<?xml version="1.0" encoding="UTF-8" standalone="no"?>
<svg width="158px" height="872px" viewBox="0 0 158 872" version="1.1" xmlns="http://www.w3.org/2000/svg" xmlns:xlink="http://www.w3.org/1999/xlink" xmlns:sketch="http://www.bohemiancoding.com/sketch/ns">
    <!-- Generator: Sketch 3.0.4 (8053) - http://www.bohemiancoding.com/sketch -->
    <title>Files-icons 2</title>
    <desc>Created with Sketch.</desc>
    <defs></defs>
    <g id="Page-1" stroke="none" stroke-width="1" fill="none" fill-rule="evenodd" sketch:type="MSPage">
        <g id="blanc" sketch:type="MSLayerGroup">
            <path d="M74,88 L0,88 L0,0 L50.2333033,0 L74,23.7105637 L74,88 Z" id="Rectangle-2" fill="#FFFFFF" sketch:type="MSShapeGroup"></path>
            <path d="M74,88 L0,88 L0,0 L50.2333033,0 L74,23.7105637 L74,88 Z M72,25.0000005 L72,86 L2,86 L2,2 L49,2 L72,25.0000005 Z" id="Rectangle-1" fill="#BDC4C9" sketch:type="MSShapeGroup"></path>
            <rect id="Rectangle-2" fill="#BDC4C9" sketch:type="MSShapeGroup" x="48" y="0" width="2" height="26"></rect>
            <rect id="Rectangle-3" fill="#BDC4C9" sketch:type="MSShapeGroup" x="48" y="24" width="26" height="2"></rect>
        </g>
        <g id="blanc" sketch:type="MSLayerGroup" transform="translate(0.000000, 98.000000)">
            <path d="M74,88 L0,88 L0,0 L50.2333033,0 L74,23.7105637 L74,88 Z" id="Rectangle-2" fill="#FFFFFF" sketch:type="MSShapeGroup"></path>
            <path d="M74,88 L0,88 L0,0 L50.2333033,0 L74,23.7105637 L74,88 Z M72,25.0000005 L72,86 L2,86 L2,2 L49,2 L72,25.0000005 Z" id="Rectangle-1" fill="#BDC4C9" sketch:type="MSShapeGroup"></path>
            <rect id="Rectangle-2" fill="#BDC4C9" sketch:type="MSShapeGroup" x="48" y="0" width="2" height="26"></rect>
            <rect id="Rectangle-3" fill="#BDC4C9" sketch:type="MSShapeGroup" x="48" y="24" width="26" height="2"></rect>
        </g>
        <g id="blanc" sketch:type="MSLayerGroup" transform="translate(0.000000, 196.000000)">
            <path d="M74,88 L0,88 L0,0 L50.2333033,0 L74,23.7105637 L74,88 Z" id="Rectangle-2" fill="#FFFFFF" sketch:type="MSShapeGroup"></path>
            <path d="M74,88 L0,88 L0,0 L50.2333033,0 L74,23.7105637 L74,88 Z M72,25.0000005 L72,86 L2,86 L2,2 L49,2 L72,25.0000005 Z" id="Rectangle-1" fill="#BDC4C9" sketch:type="MSShapeGroup"></path>
            <rect id="Rectangle-2" fill="#BDC4C9" sketch:type="MSShapeGroup" x="48" y="0" width="2" height="26"></rect>
            <rect id="Rectangle-3" fill="#BDC4C9" sketch:type="MSShapeGroup" x="48" y="24" width="26" height="2"></rect>
        </g>
        <g id="blanc-2" sketch:type="MSLayerGroup" transform="translate(84.000000, 0.000000)">
            <path d="M74,88 L0,88 L0,0 L50.2333033,0 L74,23.7105637 L74,88 Z" id="Rectangle-2" fill="#F7F7F7" sketch:type="MSShapeGroup"></path>
            <path d="M74,88 L0,88 L0,0 L50.2333033,0 L74,23.7105637 L74,88 Z M72,25.0000005 L72,86 L2,86 L2,2 L49,2 L72,25.0000005 Z" id="Rectangle-1" fill="#BDC4C9" sketch:type="MSShapeGroup"></path>
            <rect id="Rectangle-2" fill="#BDC4C9" sketch:type="MSShapeGroup" x="48" y="0" width="2" height="26"></rect>
            <rect id="Rectangle-3" fill="#BDC4C9" sketch:type="MSShapeGroup" x="48" y="24" width="26" height="2"></rect>
        </g>
        <g id="blanc-2" sketch:type="MSLayerGroup" transform="translate(84.000000, 98.000000)">
            <path d="M74,88 L0,88 L0,0 L50.2333033,0 L74,23.7105637 L74,88 Z" id="Rectangle-2" fill="#F7F7F7" sketch:type="MSShapeGroup"></path>
            <path d="M74,88 L0,88 L0,0 L50.2333033,0 L74,23.7105637 L74,88 Z M72,25.0000005 L72,86 L2,86 L2,2 L49,2 L72,25.0000005 Z" id="Rectangle-1" fill="#BDC4C9" sketch:type="MSShapeGroup"></path>
            <rect id="Rectangle-2" fill="#BDC4C9" sketch:type="MSShapeGroup" x="48" y="0" width="2" height="26"></rect>
            <rect id="Rectangle-3" fill="#BDC4C9" sketch:type="MSShapeGroup" x="48" y="24" width="26" height="2"></rect>
        </g>
        <g id="blanc-2" sketch:type="MSLayerGroup" transform="translate(84.000000, 196.000000)">
            <path d="M74,88 L0,88 L0,0 L50.2333033,0 L74,23.7105637 L74,88 Z" id="Rectangle-2" fill="#F7F7F7" sketch:type="MSShapeGroup"></path>
            <path d="M74,88 L0,88 L0,0 L50.2333033,0 L74,23.7105637 L74,88 Z M72,25.0000005 L72,86 L2,86 L2,2 L49,2 L72,25.0000005 Z" id="Rectangle-1" fill="#BDC4C9" sketch:type="MSShapeGroup"></path>
            <rect id="Rectangle-2" fill="#BDC4C9" sketch:type="MSShapeGroup" x="48" y="0" width="2" height="26"></rect>
            <rect id="Rectangle-3" fill="#BDC4C9" sketch:type="MSShapeGroup" x="48" y="24" width="26" height="2"></rect>
        </g>
        <g id="blanc-+-blanc-2" sketch:type="MSLayerGroup" transform="translate(0.000000, 294.000000)">
            <g id="blanc" sketch:type="MSShapeGroup">
                <path d="M74,88 L0,88 L0,0 L50.2333033,0 L74,23.7105637 L74,88 Z" id="Rectangle-2" fill="#FFFFFF"></path>
                <path d="M74,88 L0,88 L0,0 L50.2333033,0 L74,23.7105637 L74,88 Z M72,25.0000005 L72,86 L2,86 L2,2 L49,2 L72,25.0000005 Z" id="Rectangle-1" fill="#BDC4C9"></path>
                <rect id="Rectangle-2" fill="#BDC4C9" x="48" y="0" width="2" height="26"></rect>
                <rect id="Rectangle-3" fill="#BDC4C9" x="48" y="24" width="26" height="2"></rect>
            </g>
            <g id="blanc-2" transform="translate(84.000000, 0.000000)" sketch:type="MSShapeGroup">
                <path d="M74,88 L0,88 L0,0 L50.2333033,0 L74,23.7105637 L74,88 Z" id="Rectangle-2" fill="#F7F7F7"></path>
                <path d="M74,88 L0,88 L0,0 L50.2333033,0 L74,23.7105637 L74,88 Z M72,25.0000005 L72,86 L2,86 L2,2 L49,2 L72,25.0000005 Z" id="Rectangle-1" fill="#BDC4C9"></path>
                <rect id="Rectangle-2" fill="#BDC4C9" x="48" y="0" width="2" height="26"></rect>
                <rect id="Rectangle-3" fill="#BDC4C9" x="48" y="24" width="26" height="2"></rect>
            </g>
        </g>
        <g id="blanc-+-blanc-2" sketch:type="MSLayerGroup" transform="translate(0.000000, 392.000000)">
            <g id="blanc" sketch:type="MSShapeGroup">
                <path d="M74,88 L0,88 L0,0 L50.2333033,0 L74,23.7105637 L74,88 Z" id="Rectangle-2" fill="#FFFFFF"></path>
                <path d="M74,88 L0,88 L0,0 L50.2333033,0 L74,23.7105637 L74,88 Z M72,25.0000005 L72,86 L2,86 L2,2 L49,2 L72,25.0000005 Z" id="Rectangle-1" fill="#BDC4C9"></path>
                <rect id="Rectangle-2" fill="#BDC4C9" x="48" y="0" width="2" height="26"></rect>
                <rect id="Rectangle-3" fill="#BDC4C9" x="48" y="24" width="26" height="2"></rect>
            </g>
            <g id="blanc-2" transform="translate(84.000000, 0.000000)" sketch:type="MSShapeGroup">
                <path d="M74,88 L0,88 L0,0 L50.2333033,0 L74,23.7105637 L74,88 Z" id="Rectangle-2" fill="#F7F7F7"></path>
                <path d="M74,88 L0,88 L0,0 L50.2333033,0 L74,23.7105637 L74,88 Z M72,25.0000005 L72,86 L2,86 L2,2 L49,2 L72,25.0000005 Z" id="Rectangle-1" fill="#BDC4C9"></path>
                <rect id="Rectangle-2" fill="#BDC4C9" x="48" y="0" width="2" height="26"></rect>
                <rect id="Rectangle-3" fill="#BDC4C9" x="48" y="24" width="26" height="2"></rect>
            </g>
        </g>
        <g id="blanc-+-blanc-2" sketch:type="MSLayerGroup" transform="translate(0.000000, 490.000000)">
            <g id="blanc" sketch:type="MSShapeGroup">
                <path d="M74,88 L0,88 L0,0 L50.2333033,0 L74,23.7105637 L74,88 Z" id="Rectangle-2" fill="#FFFFFF"></path>
                <path d="M74,88 L0,88 L0,0 L50.2333033,0 L74,23.7105637 L74,88 Z M72,25.0000005 L72,86 L2,86 L2,2 L49,2 L72,25.0000005 Z" id="Rectangle-1" fill="#BDC4C9"></path>
                <rect id="Rectangle-2" fill="#BDC4C9" x="48" y="0" width="2" height="26"></rect>
                <rect id="Rectangle-3" fill="#BDC4C9" x="48" y="24" width="26" height="2"></rect>
            </g>
            <g id="blanc-2" transform="translate(84.000000, 0.000000)" sketch:type="MSShapeGroup">
                <path d="M74,88 L0,88 L0,0 L50.2333033,0 L74,23.7105637 L74,88 Z" id="Rectangle-2" fill="#F7F7F7"></path>
                <path d="M74,88 L0,88 L0,0 L50.2333033,0 L74,23.7105637 L74,88 Z M72,25.0000005 L72,86 L2,86 L2,2 L49,2 L72,25.0000005 Z" id="Rectangle-1" fill="#BDC4C9"></path>
                <rect id="Rectangle-2" fill="#BDC4C9" x="48" y="0" width="2" height="26"></rect>
                <rect id="Rectangle-3" fill="#BDC4C9" x="48" y="24" width="26" height="2"></rect>
            </g>
        </g>
        <g id="blanc-+-blanc-2" sketch:type="MSLayerGroup" transform="translate(0.000000, 588.000000)">
            <g id="blanc" sketch:type="MSShapeGroup">
                <path d="M74,88 L0,88 L0,0 L50.2333033,0 L74,23.7105637 L74,88 Z" id="Rectangle-2" fill="#FFFFFF"></path>
                <path d="M74,88 L0,88 L0,0 L50.2333033,0 L74,23.7105637 L74,88 Z M72,25.0000005 L72,86 L2,86 L2,2 L49,2 L72,25.0000005 Z" id="Rectangle-1" fill="#BDC4C9"></path>
                <rect id="Rectangle-2" fill="#BDC4C9" x="48" y="0" width="2" height="26"></rect>
                <rect id="Rectangle-3" fill="#BDC4C9" x="48" y="24" width="26" height="2"></rect>
            </g>
            <g id="blanc-2" transform="translate(84.000000, 0.000000)" sketch:type="MSShapeGroup">
                <path d="M74,88 L0,88 L0,0 L50.2333033,0 L74,23.7105637 L74,88 Z" id="Rectangle-2" fill="#F7F7F7"></path>
                <path d="M74,88 L0,88 L0,0 L50.2333033,0 L74,23.7105637 L74,88 Z M72,25.0000005 L72,86 L2,86 L2,2 L49,2 L72,25.0000005 Z" id="Rectangle-1" fill="#BDC4C9"></path>
                <rect id="Rectangle-2" fill="#BDC4C9" x="48" y="0" width="2" height="26"></rect>
                <rect id="Rectangle-3" fill="#BDC4C9" x="48" y="24" width="26" height="2"></rect>
            </g>
        </g>
        <g id="blanc-+-blanc-2" sketch:type="MSLayerGroup" transform="translate(0.000000, 686.000000)">
            <g id="blanc" sketch:type="MSShapeGroup">
                <path d="M74,88 L0,88 L0,0 L50.2333033,0 L74,23.7105637 L74,88 Z" id="Rectangle-2" fill="#FFFFFF"></path>
                <path d="M74,88 L0,88 L0,0 L50.2333033,0 L74,23.7105637 L74,88 Z M72,25.0000005 L72,86 L2,86 L2,2 L49,2 L72,25.0000005 Z" id="Rectangle-1" fill="#BDC4C9"></path>
                <rect id="Rectangle-2" fill="#BDC4C9" x="48" y="0" width="2" height="26"></rect>
                <rect id="Rectangle-3" fill="#BDC4C9" x="48" y="24" width="26" height="2"></rect>
            </g>
            <g id="blanc-2" transform="translate(84.000000, 0.000000)" sketch:type="MSShapeGroup">
                <path d="M74,88 L0,88 L0,0 L50.2333033,0 L74,23.7105637 L74,88 Z" id="Rectangle-2" fill="#F7F7F7"></path>
                <path d="M74,88 L0,88 L0,0 L50.2333033,0 L74,23.7105637 L74,88 Z M72,25.0000005 L72,86 L2,86 L2,2 L49,2 L72,25.0000005 Z" id="Rectangle-1" fill="#BDC4C9"></path>
                <rect id="Rectangle-2" fill="#BDC4C9" x="48" y="0" width="2" height="26"></rect>
                <rect id="Rectangle-3" fill="#BDC4C9" x="48" y="24" width="26" height="2"></rect>
            </g>
        </g>
        <g id="blanc-+-blanc-2" sketch:type="MSLayerGroup" transform="translate(0.000000, 784.000000)">
            <g id="blanc" sketch:type="MSShapeGroup">
                <path d="M74,88 L0,88 L0,0 L50.2333033,0 L74,23.7105637 L74,88 Z" id="Rectangle-2" fill="#FFFFFF"></path>
                <path d="M74,88 L0,88 L0,0 L50.2333033,0 L74,23.7105637 L74,88 Z M72,25.0000005 L72,86 L2,86 L2,2 L49,2 L72,25.0000005 Z" id="Rectangle-1" fill="#BDC4C9"></path>
                <rect id="Rectangle-2" fill="#BDC4C9" x="48" y="0" width="2" height="26"></rect>
                <rect id="Rectangle-3" fill="#BDC4C9" x="48" y="24" width="26" height="2"></rect>
            </g>
            <g id="blanc-2" transform="translate(84.000000, 0.000000)" sketch:type="MSShapeGroup">
                <path d="M74,88 L0,88 L0,0 L50.2333033,0 L74,23.7105637 L74,88 Z" id="Rectangle-2" fill="#F7F7F7"></path>
                <path d="M74,88 L0,88 L0,0 L50.2333033,0 L74,23.7105637 L74,88 Z M72,25.0000005 L72,86 L2,86 L2,2 L49,2 L72,25.0000005 Z" id="Rectangle-1" fill="#BDC4C9"></path>
                <rect id="Rectangle-2" fill="#BDC4C9" x="48" y="0" width="2" height="26"></rect>
                <rect id="Rectangle-3" fill="#BDC4C9" x="48" y="24" width="26" height="2"></rect>
            </g>
        </g>
        <g id="Music" sketch:type="MSLayerGroup" transform="translate(18.000000, 134.000000)" fill="#BDC4C9">
            <path d="M29.9963112,0 C31.102918,0 32,0.90516972 32,2.00787513 L32,30.244898 C31.9435858,31.5903551 31.4182053,34.1224496 26,34.122449 C20,34.1224483 19.9999999,31.0024215 20,29.8571429 C20.0000001,28.7118642 20,25.5918367 26,25.5918367 C27.5791702,25.5918367 29.6,24.8319939 29.6,24.8319939 L29.6,11.304074 C29.6,10.2006358 28.7272133,9.4753362 27.6322866,9.68761791 L13.9677134,12.3368719 C12.8809753,12.547566 12,13.6208345 12,14.7132015 L12,33.7212384 L12,34.122449 C11.94239,35.4580773 11.4120712,38 6,38 C1.58168024e-11,38 1.22049815e-07,34.8837592 1.58168024e-11,33.7346939 C-7.21289409e-08,32.5856286 1.58168024e-11,29.4693878 6,29.4693878 C7.57917023,29.4693878 9.6,28.7698003 9.6,28.7698003 L9.6,13.1836735 L9.6,5.87394776 C9.6,4.77136829 10.4851811,3.70593427 11.5540992,3.49869505 L29.6,0 L29.9963112,0 Z" sketch:type="MSShapeGroup"></path>
        </g>
        <g id="Music" sketch:type="MSLayerGroup" transform="translate(102.000000, 134.000000)" fill="#B366CC">
            <path d="M29.9963112,0 C31.102918,0 32,0.90516972 32,2.00787513 L32,30.244898 C31.9435858,31.5903551 31.4182053,34.1224496 26,34.122449 C20,34.1224483 19.9999999,31.0024215 20,29.8571429 C20.0000001,28.7118642 20,25.5918367 26,25.5918367 C27.5791702,25.5918367 29.6,24.8319939 29.6,24.8319939 L29.6,11.304074 C29.6,10.2006358 28.7272133,9.4753362 27.6322866,9.68761791 L13.9677134,12.3368719 C12.8809753,12.547566 12,13.6208345 12,14.7132015 L12,33.7212384 L12,34.122449 C11.94239,35.4580773 11.4120712,38 6,38 C1.58168024e-11,38 1.22049815e-07,34.8837592 1.58168024e-11,33.7346939 C-7.21289409e-08,32.5856286 1.58168024e-11,29.4693878 6,29.4693878 C7.57917023,29.4693878 9.6,28.7698003 9.6,28.7698003 L9.6,13.1836735 L9.6,5.87394776 C9.6,4.77136829 10.4851811,3.70593427 11.5540992,3.49869505 L29.6,0 L29.9963112,0 Z" sketch:type="MSShapeGroup"></path>
        </g>
        <g id="Video" sketch:type="MSLayerGroup" transform="translate(19.000000, 436.000000)" fill="#BDC4C9">
            <g id="video" sketch:type="MSShapeGroup">
                <rect id="Rectangle-5" x="0" y="0" width="22.1666667" height="22" rx="3"></rect>
                <path d="M25.3333333,6.28571429 L25.3333333,15.7142857 L38,22 L38,0 L25.3333333,6.28571429 Z" id="Rectangle-6"></path>
            </g>
        </g>
        <g id="Video" sketch:type="MSLayerGroup" transform="translate(103.000000, 436.000000)" fill="#D58B8B">
            <g id="video" sketch:type="MSShapeGroup">
                <rect id="Rectangle-5" x="0" y="0" width="22.1666667" height="22" rx="3"></rect>
                <path d="M25.3333333,6.28571429 L25.3333333,15.7142857 L38,22 L38,0 L25.3333333,6.28571429 Z" id="Rectangle-6"></path>
            </g>
        </g>
        <g id="Document" sketch:type="MSLayerGroup" transform="translate(15.000000, 312.000000)" fill="#BDC4C9">
            <rect id="Rectangle-1" sketch:type="MSShapeGroup" x="0" y="6" width="24" height="2"></rect>
            <rect id="Rectangle-2" sketch:type="MSShapeGroup" x="0" y="12" width="24" height="2"></rect>
            <rect id="Rectangle-2" sketch:type="MSShapeGroup" x="0" y="0" width="24" height="2"></rect>
            <rect id="Rectangle-3" sketch:type="MSShapeGroup" x="0" y="18" width="44" height="2"></rect>
            <rect id="Rectangle-3" sketch:type="MSShapeGroup" x="0" y="36" width="44" height="2"></rect>
            <rect id="Rectangle-3" sketch:type="MSShapeGroup" x="0" y="30" width="44" height="2"></rect>
            <rect id="Rectangle-3" sketch:type="MSShapeGroup" x="0" y="48" width="44" height="2"></rect>
            <rect id="Rectangle-3" sketch:type="MSShapeGroup" x="0" y="54" width="44" height="2"></rect>
            <rect id="Rectangle-4" sketch:type="MSShapeGroup" x="0" y="24" width="44" height="2"></rect>
            <rect id="Rectangle-4" sketch:type="MSShapeGroup" x="0" y="42" width="44" height="2"></rect>
        </g>
        <g id="Document" sketch:type="MSLayerGroup" transform="translate(99.000000, 312.000000)" fill="#A3C4E0">
            <g id="Group" sketch:type="MSShapeGroup">
                <rect id="Rectangle-1" x="0" y="6" width="24" height="2"></rect>
                <rect id="Rectangle-2" x="0" y="12" width="24" height="2"></rect>
                <rect id="Rectangle-2" x="0" y="0" width="24" height="2"></rect>
                <rect id="Rectangle-3" x="0" y="18" width="44" height="2"></rect>
                <rect id="Rectangle-3" x="0" y="36" width="44" height="2"></rect>
                <rect id="Rectangle-3" x="0" y="30" width="44" height="2"></rect>
                <rect id="Rectangle-3" x="0" y="48" width="44" height="2"></rect>
                <rect id="Rectangle-3" x="0" y="54" width="44" height="2"></rect>
                <rect id="Rectangle-4" x="0" y="24" width="44" height="2"></rect>
                <rect id="Rectangle-4" x="0" y="42" width="44" height="2"></rect>
            </g>
        </g>
        <g id="Picture" sketch:type="MSLayerGroup" transform="translate(15.000000, 618.000000)" fill="#BDC4C9">
            <path d="M44,44 L44,29.750884 L30.2843321,15.5833333 L13.7156679,32.616311 L8.24313358,26.885457 L0,35.481738 L0,44 L44,44 Z M8.70652023,17.4166667 C11.150583,17.4166667 13.1848844,16.6009402 14.8928274,14.8933528 C16.6043966,13.1821399 17.4166667,11.1482619 17.4166667,8.70833333 C17.4166667,6.26477935 16.6043966,4.23090133 14.8928274,2.52331391 C13.1848844,0.815726478 11.150583,0 8.70652023,0 C6.2660837,0 4.23178222,0.815726478 2.52021306,2.52331391 C0.812270109,4.23090133 0,6.26477935 0,8.70833333 C0,11.1482619 0.812270109,13.1821399 2.52021306,14.8933528 C4.23178222,16.6009402 6.2660837,17.4166667 8.70652023,17.4166667 Z" id="Path" sketch:type="MSShapeGroup"></path>
        </g>
        <g id="Picture" sketch:type="MSLayerGroup" transform="translate(99.000000, 618.000000)" fill="#A194D5">
            <path d="M44,44 L44,29.750884 L30.2843321,15.5833333 L13.7156679,32.616311 L8.24313358,26.885457 L0,35.481738 L0,44 L44,44 Z M8.70652023,17.4166667 C11.150583,17.4166667 13.1848844,16.6009402 14.8928274,14.8933528 C16.6043966,13.1821399 17.4166667,11.1482619 17.4166667,8.70833333 C17.4166667,6.26477935 16.6043966,4.23090133 14.8928274,2.52331391 C13.1848844,0.815726478 11.150583,0 8.70652023,0 C6.2660837,0 4.23178222,0.815726478 2.52021306,2.52331391 C0.812270109,4.23090133 0,6.26477935 0,8.70833333 C0,11.1482619 0.812270109,13.1821399 2.52021306,14.8933528 C4.23178222,16.6009402 6.2660837,17.4166667 8.70652023,17.4166667 Z" id="Path" sketch:type="MSShapeGroup"></path>
        </g>
        <g id="psd" sketch:type="MSLayerGroup" transform="translate(21.000000, 827.000000)" fill="#BDC4C9">
            <path d="M0.376,24 L5.812,24 L5.812,15.324 C6.316,15.396 6.964,15.432 7.684,15.432 C10.924,15.432 13.696,14.64 15.568,12.876 C17.008,11.508 17.8,9.492 17.8,7.116 C17.8,4.74 16.756,2.724 15.208,1.5 C13.588,0.204 11.176,-0.444 7.792,-0.444 C4.444,-0.444 2.068,-0.228 0.376,0.06 L0.376,24 Z M5.812,3.912 C6.208,3.804 6.964,3.696 8.08,3.696 C10.816,3.696 12.364,5.028 12.364,7.26 C12.364,9.744 10.564,11.22 7.648,11.22 C6.856,11.22 6.28,11.184 5.812,11.076 L5.812,3.912 Z M19.348,23.136 C20.68,23.856 22.732,24.36 25.036,24.36 C30.076,24.36 32.668,21.948 32.668,18.672 C32.632,16.08 31.228,14.388 27.88,13.236 C25.72,12.48 25.036,12.048 25.036,11.22 C25.036,10.32 25.792,9.78 27.124,9.78 C28.636,9.78 30.148,10.356 30.94,10.788 L31.912,7.008 C30.832,6.468 28.996,6 26.944,6 C22.588,6 19.78,8.484 19.78,11.76 C19.744,13.848 21.148,15.828 24.784,17.052 C26.836,17.736 27.376,18.168 27.376,19.068 C27.376,19.968 26.692,20.544 25.036,20.544 C23.416,20.544 21.328,19.824 20.32,19.212 L19.348,23.136 Z" id="Ps" sketch:type="MSShapeGroup"></path>
        </g>
        <g id="psd" sketch:type="MSLayerGroup" transform="translate(105.000000, 827.000000)" fill="#6992BC">
            <path d="M0.376,24 L5.812,24 L5.812,15.324 C6.316,15.396 6.964,15.432 7.684,15.432 C10.924,15.432 13.696,14.64 15.568,12.876 C17.008,11.508 17.8,9.492 17.8,7.116 C17.8,4.74 16.756,2.724 15.208,1.5 C13.588,0.204 11.176,-0.444 7.792,-0.444 C4.444,-0.444 2.068,-0.228 0.376,0.06 L0.376,24 Z M5.812,3.912 C6.208,3.804 6.964,3.696 8.08,3.696 C10.816,3.696 12.364,5.028 12.364,7.26 C12.364,9.744 10.564,11.22 7.648,11.22 C6.856,11.22 6.28,11.184 5.812,11.076 L5.812,3.912 Z M19.348,23.136 C20.68,23.856 22.732,24.36 25.036,24.36 C30.076,24.36 32.668,21.948 32.668,18.672 C32.632,16.08 31.228,14.388 27.88,13.236 C25.72,12.48 25.036,12.048 25.036,11.22 C25.036,10.32 25.792,9.78 27.124,9.78 C28.636,9.78 30.148,10.356 30.94,10.788 L31.912,7.008 C30.832,6.468 28.996,6 26.944,6 C22.588,6 19.78,8.484 19.78,11.76 C19.744,13.848 21.148,15.828 24.784,17.052 C26.836,17.736 27.376,18.168 27.376,19.068 C27.376,19.968 26.692,20.544 25.036,20.544 C23.416,20.544 21.328,19.824 20.32,19.212 L19.348,23.136 Z" id="Ps" sketch:type="MSShapeGroup"></path>
        </g>
        <g id="xls" sketch:type="MSLayerGroup" transform="translate(13.000000, 209.000000)" fill="#BDC4C9">
            <g id="Group" sketch:type="MSShapeGroup">
                <rect id="Rectangle-7" x="0" y="6" width="8" height="4"></rect>
                <rect id="Rectangle-7" x="0" y="12" width="8" height="4"></rect>
                <rect id="Rectangle-7" x="10" y="6" width="8" height="4"></rect>
                <rect id="Rectangle-7" x="10" y="12" width="8" height="4"></rect>
                <rect id="Rectangle-8" x="20" y="6" width="8" height="4"></rect>
                <rect id="Rectangle-8" x="0" y="0" width="8" height="4"></rect>
                <rect id="Rectangle-8" x="10" y="0" width="8" height="4"></rect>
                <rect id="Rectangle-9" x="20" y="0" width="8" height="4"></rect>
                <rect id="Rectangle-8" x="20" y="12" width="8" height="4"></rect>
                <rect id="Rectangle-8" x="0" y="18" width="8" height="4"></rect>
                <rect id="Rectangle-8" x="0" y="24" width="8" height="4"></rect>
                <rect id="Rectangle-8" x="10" y="18" width="8" height="4"></rect>
                <rect id="Rectangle-8" x="10" y="24" width="8" height="4"></rect>
                <rect id="Rectangle-9" x="20" y="18" width="8" height="4"></rect>
                <rect id="Rectangle-9" x="30" y="6" width="6" height="4"></rect>
                <rect id="Rectangle-10" x="30" y="0" width="6" height="4"></rect>
                <rect id="Rectangle-9" x="30" y="12" width="8" height="4"></rect>
                <rect id="Rectangle-10" x="30" y="18" width="8" height="4"></rect>
                <rect id="Rectangle-11" x="40" y="18" width="8" height="4"></rect>
                <rect id="Rectangle-12" x="40" y="12" width="8" height="4"></rect>
                <rect id="Rectangle-9" x="20" y="24" width="8" height="4"></rect>
                <rect id="Rectangle-10" x="30" y="24" width="8" height="4"></rect>
                <rect id="Rectangle-11" x="40" y="24" width="8" height="4"></rect>
                <rect id="Rectangle-9" x="0" y="30" width="8" height="4"></rect>
                <rect id="Rectangle-9" x="10" y="30" width="8" height="4"></rect>
                <rect id="Rectangle-10" x="20" y="30" width="8" height="4"></rect>
                <rect id="Rectangle-11" x="30" y="30" width="8" height="4"></rect>
                <rect id="Rectangle-12" x="40" y="30" width="8" height="4"></rect>
                <rect id="Rectangle-10" x="0" y="36" width="8" height="4"></rect>
                <rect id="Rectangle-10" x="10" y="36" width="8" height="4"></rect>
                <rect id="Rectangle-11" x="20" y="36" width="8" height="4"></rect>
                <rect id="Rectangle-12" x="30" y="36" width="8" height="4"></rect>
                <rect id="Rectangle-13" x="40" y="36" width="8" height="4"></rect>
                <rect id="Rectangle-11" x="0" y="42" width="8" height="4"></rect>
                <rect id="Rectangle-11" x="10" y="42" width="8" height="4"></rect>
                <rect id="Rectangle-12" x="20" y="42" width="8" height="4"></rect>
                <rect id="Rectangle-13" x="30" y="42" width="8" height="4"></rect>
                <rect id="Rectangle-14" x="40" y="42" width="8" height="4"></rect>
                <rect id="Rectangle-12" x="0" y="48" width="8" height="4"></rect>
                <rect id="Rectangle-12" x="10" y="48" width="8" height="4"></rect>
                <rect id="Rectangle-13" x="20" y="48" width="8" height="4"></rect>
                <rect id="Rectangle-14" x="30" y="48" width="8" height="4"></rect>
                <rect id="Rectangle-15" x="40" y="48" width="8" height="4"></rect>
                <rect id="Rectangle-13" x="0" y="54" width="8" height="4"></rect>
                <rect id="Rectangle-13" x="10" y="54" width="8" height="4"></rect>
                <rect id="Rectangle-14" x="20" y="54" width="8" height="4"></rect>
                <rect id="Rectangle-15" x="30" y="54" width="8" height="4"></rect>
                <rect id="Rectangle-16" x="40" y="54" width="8" height="4"></rect>
                <rect id="Rectangle-14" x="0" y="60" width="8" height="4"></rect>
                <rect id="Rectangle-14" x="10" y="60" width="8" height="4"></rect>
                <rect id="Rectangle-15" x="20" y="60" width="8" height="4"></rect>
                <rect id="Rectangle-16" x="30" y="60" width="8" height="4"></rect>
                <rect id="Rectangle-17" x="40" y="60" width="8" height="4"></rect>
            </g>
        </g>
        <g id="xls" sketch:type="MSLayerGroup" transform="translate(97.000000, 209.000000)" fill="#BCD6BC">
            <g id="Group" sketch:type="MSShapeGroup">
                <rect id="Rectangle-7" x="0" y="6" width="8" height="4"></rect>
                <rect id="Rectangle-7" x="0" y="12" width="8" height="4"></rect>
                <rect id="Rectangle-7" x="10" y="6" width="8" height="4"></rect>
                <rect id="Rectangle-7" x="10" y="12" width="8" height="4"></rect>
                <rect id="Rectangle-8" x="20" y="6" width="8" height="4"></rect>
                <rect id="Rectangle-8" x="0" y="0" width="8" height="4"></rect>
                <rect id="Rectangle-8" x="10" y="0" width="8" height="4"></rect>
                <rect id="Rectangle-9" x="20" y="0" width="8" height="4"></rect>
                <rect id="Rectangle-8" x="20" y="12" width="8" height="4"></rect>
                <rect id="Rectangle-8" x="0" y="18" width="8" height="4"></rect>
                <rect id="Rectangle-8" x="0" y="24" width="8" height="4"></rect>
                <rect id="Rectangle-8" x="10" y="18" width="8" height="4"></rect>
                <rect id="Rectangle-8" x="10" y="24" width="8" height="4"></rect>
                <rect id="Rectangle-9" x="20" y="18" width="8" height="4"></rect>
                <rect id="Rectangle-9" x="30" y="6" width="5" height="4"></rect>
                <rect id="Rectangle-10" x="30" y="0" width="5" height="4"></rect>
                <path d="M35.0949707,13 L35.0949707,12 L30,12 L30,16 L38,16 L38,13 L35.0949707,13 Z" id="Rectangle-9"></path>
                <rect id="Rectangle-10" x="30" y="18" width="8" height="4"></rect>
                <rect id="Rectangle-11" x="40" y="18" width="8" height="4"></rect>
                <rect id="Rectangle-12" x="40" y="13" width="8" height="3"></rect>
                <rect id="Rectangle-9" x="20" y="24" width="8" height="4"></rect>
                <rect id="Rectangle-10" x="30" y="24" width="8" height="4"></rect>
                <rect id="Rectangle-11" x="40" y="24" width="8" height="4"></rect>
                <rect id="Rectangle-9" x="0" y="30" width="8" height="4"></rect>
                <rect id="Rectangle-9" x="10" y="30" width="8" height="4"></rect>
                <rect id="Rectangle-10" x="20" y="30" width="8" height="4"></rect>
                <rect id="Rectangle-11" x="30" y="30" width="8" height="4"></rect>
                <rect id="Rectangle-12" x="40" y="30" width="8" height="4"></rect>
                <rect id="Rectangle-10" x="0" y="36" width="8" height="4"></rect>
                <rect id="Rectangle-10" x="10" y="36" width="8" height="4"></rect>
                <rect id="Rectangle-11" x="20" y="36" width="8" height="4"></rect>
                <rect id="Rectangle-12" x="30" y="36" width="8" height="4"></rect>
                <rect id="Rectangle-13" x="40" y="36" width="8" height="4"></rect>
                <rect id="Rectangle-11" x="0" y="42" width="8" height="4"></rect>
                <rect id="Rectangle-11" x="10" y="42" width="8" height="4"></rect>
                <rect id="Rectangle-12" x="20" y="42" width="8" height="4"></rect>
                <rect id="Rectangle-13" x="30" y="42" width="8" height="4"></rect>
                <rect id="Rectangle-14" x="40" y="42" width="8" height="4"></rect>
                <rect id="Rectangle-12" x="0" y="48" width="8" height="4"></rect>
                <rect id="Rectangle-12" x="10" y="48" width="8" height="4"></rect>
                <rect id="Rectangle-13" x="20" y="48" width="8" height="4"></rect>
                <rect id="Rectangle-14" x="30" y="48" width="8" height="4"></rect>
                <rect id="Rectangle-15" x="40" y="48" width="8" height="4"></rect>
                <rect id="Rectangle-13" x="0" y="54" width="8" height="4"></rect>
                <rect id="Rectangle-13" x="10" y="54" width="8" height="4"></rect>
                <rect id="Rectangle-14" x="20" y="54" width="8" height="4"></rect>
                <rect id="Rectangle-15" x="30" y="54" width="8" height="4"></rect>
                <rect id="Rectangle-16" x="40" y="54" width="8" height="4"></rect>
                <rect id="Rectangle-14" x="0" y="60" width="8" height="4"></rect>
                <rect id="Rectangle-14" x="10" y="60" width="8" height="4"></rect>
                <rect id="Rectangle-15" x="20" y="60" width="8" height="4"></rect>
                <rect id="Rectangle-16" x="30" y="60" width="8" height="4"></rect>
                <rect id="Rectangle-17" x="40" y="60" width="8" height="4"></rect>
            </g>
        </g>
        <g id="archive" sketch:type="MSLayerGroup" transform="translate(20.000000, 688.000000)" fill="#BDC4C9">
            <path d="M6,51.9300308 C2.80486344,52.5835238 -3.55271368e-16,55.433305 -3.55271368e-16,58.8947368 C-3.55271368e-16,62.8188654 3.1070536,66 7,66 C10.8659933,66 14,62.8462235 14,58.8947368 C14,55.4545225 11.2120054,52.5853532 8,51.9300308 L8,51 L8,50 L8,48 L11,48 L11,46 L8,46 L8,44 L11,44 L11,42 L8,42 L8,40 L11,40 L11,38 L8,38 L8,36 L11,36 L11,34 L8,34 L8,32 L11,32 L11,30 L8,30 L8,28 L11,28 L11,26 L8,26 L8,24 L3,24 L3,26 L6,26 L6,28 L3,28 L3,30 L6,30 L6,32 L3,32 L3,34 L6,34 L6,36 L3,36 L3,38 L6,38 L6,40 L3,40 L3,42 L6,42 L6,44 L3,44 L3,46 L6,46 L6,48 L3,48 L3,50 L6,50 L6,51 L6,51.9300308 Z M8,24 L11,24 L11,22 L8,22 L8,20 L11,20 L11,18 L8,18 L8,16 L11,16 L11,14 L8,14 L8,12 L11,12 L11,10 L8,10 L8,8 L11,8 L11,6 L8,6 L8,4 L11,4 L11,2 L8,2 L8,0 L3,0 L3,2 L6,2 L6,4 L3,4 L3,6 L6,6 L6,8 L3,8 L3,10 L6,10 L6,12 L3,12 L3,14 L6,14 L6,16 L3,16 L3,18 L6,18 L6,20 L3,20 L3,22 L6,22 L6,24 L8,24 Z M7,64 C9.76142375,64 12,61.7614237 12,59 C12,56.2385763 9.76142375,54 7,54 C4.23857625,54 2,56.2385763 2,59 C2,61.7614237 4.23857625,64 7,64 Z" id="zip-path" sketch:type="MSShapeGroup"></path>
        </g>
        <g id="archive" sketch:type="MSLayerGroup" transform="translate(104.000000, 688.000000)" fill="#8F8F8F">
            <path d="M6,51.9300308 C2.80486344,52.5835238 -3.55271368e-16,55.433305 -3.55271368e-16,58.8947368 C-3.55271368e-16,62.8188654 3.1070536,66 7,66 C10.8659933,66 14,62.8462235 14,58.8947368 C14,55.4545225 11.2120054,52.5853532 8,51.9300308 L8,51 L8,50 L8,48 L11,48 L11,46 L8,46 L8,44 L11,44 L11,42 L8,42 L8,40 L11,40 L11,38 L8,38 L8,36 L11,36 L11,34 L8,34 L8,32 L11,32 L11,30 L8,30 L8,28 L11,28 L11,26 L8,26 L8,24 L3,24 L3,26 L6,26 L6,28 L3,28 L3,30 L6,30 L6,32 L3,32 L3,34 L6,34 L6,36 L3,36 L3,38 L6,38 L6,40 L3,40 L3,42 L6,42 L6,44 L3,44 L3,46 L6,46 L6,48 L3,48 L3,50 L6,50 L6,51 L6,51.9300308 Z M8,24 L11,24 L11,22 L8,22 L8,20 L11,20 L11,18 L8,18 L8,16 L11,16 L11,14 L8,14 L8,12 L11,12 L11,10 L8,10 L8,8 L11,8 L11,6 L8,6 L8,4 L11,4 L11,2 L8,2 L8,0 L3,0 L3,2 L6,2 L6,4 L3,4 L3,6 L6,6 L6,8 L3,8 L3,10 L6,10 L6,12 L3,12 L3,14 L6,14 L6,16 L3,16 L3,18 L6,18 L6,20 L3,20 L3,22 L6,22 L6,24 L8,24 Z M7,64 C9.76142375,64 12,61.7614237 12,59 C12,56.2385763 9.76142375,54 7,54 C4.23857625,54 2,56.2385763 2,59 C2,61.7614237 4.23857625,64 7,64 Z" id="zip-path" sketch:type="MSShapeGroup"></path>
        </g>
        <g id="pdf" sketch:type="MSLayerGroup" transform="translate(14.000000, 519.000000)" fill="#BDC4C9">
            <path d="M0.619325738,47.0749785 L1.71100103,47.6629476 C2.12972579,47.9176094 2.54845056,48 3.05316345,48 C5.81973781,48 9.59573795,43.8804712 14.3811639,35.7275493 C19.6675641,33.8775064 25.7951524,32.5330421 32.7601903,31.7765468 C34.6893151,32.8700944 36.7006894,33.6265897 38.8017905,34.2969494 C40.8991529,34.8849185 42.7460283,35.2219708 44.2564283,35.2219708 C46.2678026,35.2219708 47.3594779,34.6340017 47.5277156,33.3719279 L47.6959532,33.2071468 C48.114678,32.2821253 48.114678,31.4394944 47.6099651,30.7691347 C46.6865274,29.2561442 43.9199531,28.4996489 39.3027648,28.4996489 C37.4558895,28.4996489 35.6127528,28.5820395 33.7658774,28.8329562 C32.2554774,27.9079348 30.913315,26.9866583 29.9038892,26.2301631 C27.0513267,23.8745416 24.7857266,20.1744558 23.0248394,15.047515 C23.4435642,12.8641648 23.6118018,9.83818366 23.6940513,6.05570726 L23.6940513,4.62510728 C23.6940513,4.4565811 23.6940513,4.37419053 23.6118018,4.20566435 C23.6940513,4.20566435 23.7800395,4.03713818 23.862289,3.868612 C24.1165147,2.43801202 23.9482771,1.34820941 23.4435642,0.674104705 C23.0248394,0.254661777 22.5201265,0 21.7649265,0 L20.7592393,0 C19.7535522,0 19.0806017,0.59171413 18.7441264,1.85004291 C18.3254016,3.44916907 18.2394135,5.46399313 18.4936393,7.81961457 C18.6618769,10.2576266 19.1628512,12.7780292 19.9180512,15.3021768 C18.7441264,19.2531794 17.1514768,23.3689631 15.0503758,27.5746274 C13.2894886,31.1024421 11.6108509,34.1284232 10.0182013,36.821097 C10.0182013,36.7349614 10.0182013,36.7349614 9.93221321,36.6525708 C9.59573795,36.1469923 9.2630013,36.0646017 8.84427653,36.3155185 C6.15621307,37.7461184 4.14483874,39.259109 2.63070007,40.8544901 C1.20628814,42.5360069 0.282850478,43.9666069 0.0323633403,45.1425451 C-0.0536247816,45.9814309 0.0323633403,46.5694 0.282850478,46.9064524 C0.451088108,46.992588 0.533337616,47.0749785 0.619325738,47.0749785 Z M4.66666667,43.1546935 C5.79844961,41.7350532 7.27906977,40.3154129 8.93023256,39.0697674 C6.14728682,43.4196403 3.88372093,46.0849261 2.23255814,46.8837209 C2.66666667,45.9069767 3.4496124,44.6613313 4.66666667,43.1546935 L4.66666667,43.1546935 Z M17.7334802,30.6533675 C19.5050141,27.1343153 20.7661061,23.9595181 21.6105873,21.2093023 C23.2094717,24.7321796 25.2324734,27.4785704 27.6758391,29.6244272 C27.7584106,29.7965548 28.0136316,30.0528336 28.4339956,30.3129375 C28.7717881,30.5692163 28.9406843,30.7413438 29.0232558,30.7413438 C24.3054207,31.5981565 19.8390533,32.8872007 15.627907,34.6046512 C16.1345957,33.7440134 16.8064274,32.370818 17.7334802,30.6533675 L17.7334802,30.6533675 Z M21.5320615,2.41164034 L21.5320615,2.32010944 L21.6057359,2.23255814 C21.9071313,2.67827385 22.1315034,3.21552046 22.1315034,3.93184927 L22.1315034,4.01940057 L22.2085266,4.10695187 L22.2085266,4.19848278 C22.1315034,4.37756498 22.0578289,4.46511628 22.0578289,4.64419848 C21.8334568,5.98532521 21.7564336,6.69767442 21.7564336,6.78920532 C21.6057359,7.95124984 21.4550382,8.75512996 21.4550382,8.93023256 C21.0799685,5.98532521 21.1569917,3.75276707 21.5320615,2.41164034 L21.5320615,2.41164034 Z M45.6853534,33.3499535 L45.7674419,33.4236279 C45.5995336,33.5006512 45.3495368,33.5006512 44.9316318,33.5006512 C43.4241886,33.5006512 41.4988404,33.1255814 39.0697674,32.372093 C42.7525555,32.372093 44.9316318,32.6734884 45.6853534,33.3499535 L45.6853534,33.3499535 Z" id="Fill-225" sketch:type="MSShapeGroup"></path>
        </g>
        <g id="pdf" sketch:type="MSLayerGroup" transform="translate(98.000000, 519.000000)" fill="#DB9695">
            <path d="M0.619325738,47.0749785 L1.71100103,47.6629476 C2.12972579,47.9176094 2.54845056,48 3.05316345,48 C5.81973781,48 9.59573795,43.8804712 14.3811639,35.7275493 C19.6675641,33.8775064 25.7951524,32.5330421 32.7601903,31.7765468 C34.6893151,32.8700944 36.7006894,33.6265897 38.8017905,34.2969494 C40.8991529,34.8849185 42.7460283,35.2219708 44.2564283,35.2219708 C46.2678026,35.2219708 47.3594779,34.6340017 47.5277156,33.3719279 L47.6959532,33.2071468 C48.114678,32.2821253 48.114678,31.4394944 47.6099651,30.7691347 C46.6865274,29.2561442 43.9199531,28.4996489 39.3027648,28.4996489 C37.4558895,28.4996489 35.6127528,28.5820395 33.7658774,28.8329562 C32.2554774,27.9079348 30.913315,26.9866583 29.9038892,26.2301631 C27.0513267,23.8745416 24.7857266,20.1744558 23.0248394,15.047515 C23.4435642,12.8641648 23.6118018,9.83818366 23.6940513,6.05570726 L23.6940513,4.62510728 C23.6940513,4.4565811 23.6940513,4.37419053 23.6118018,4.20566435 C23.6940513,4.20566435 23.7800395,4.03713818 23.862289,3.868612 C24.1165147,2.43801202 23.9482771,1.34820941 23.4435642,0.674104705 C23.0248394,0.254661777 22.5201265,0 21.7649265,0 L20.7592393,0 C19.7535522,0 19.0806017,0.59171413 18.7441264,1.85004291 C18.3254016,3.44916907 18.2394135,5.46399313 18.4936393,7.81961457 C18.6618769,10.2576266 19.1628512,12.7780292 19.9180512,15.3021768 C18.7441264,19.2531794 17.1514768,23.3689631 15.0503758,27.5746274 C13.2894886,31.1024421 11.6108509,34.1284232 10.0182013,36.821097 C10.0182013,36.7349614 10.0182013,36.7349614 9.93221321,36.6525708 C9.59573795,36.1469923 9.2630013,36.0646017 8.84427653,36.3155185 C6.15621307,37.7461184 4.14483874,39.259109 2.63070007,40.8544901 C1.20628814,42.5360069 0.282850478,43.9666069 0.0323633403,45.1425451 C-0.0536247816,45.9814309 0.0323633403,46.5694 0.282850478,46.9064524 C0.451088108,46.992588 0.533337616,47.0749785 0.619325738,47.0749785 Z M4.66666667,43.1546935 C5.79844961,41.7350532 7.27906977,40.3154129 8.93023256,39.0697674 C6.14728682,43.4196403 3.88372093,46.0849261 2.23255814,46.8837209 C2.66666667,45.9069767 3.4496124,44.6613313 4.66666667,43.1546935 L4.66666667,43.1546935 Z M17.7334802,30.6533675 C19.5050141,27.1343153 20.7661061,23.9595181 21.6105873,21.2093023 C23.2094717,24.7321796 25.2324734,27.4785704 27.6758391,29.6244272 C27.7584106,29.7965548 28.0136316,30.0528336 28.4339956,30.3129375 C28.7717881,30.5692163 28.9406843,30.7413438 29.0232558,30.7413438 C24.3054207,31.5981565 19.8390533,32.8872007 15.627907,34.6046512 C16.1345957,33.7440134 16.8064274,32.370818 17.7334802,30.6533675 L17.7334802,30.6533675 Z M21.5320615,2.41164034 L21.5320615,2.32010944 L21.6057359,2.23255814 C21.9071313,2.67827385 22.1315034,3.21552046 22.1315034,3.93184927 L22.1315034,4.01940057 L22.2085266,4.10695187 L22.2085266,4.19848278 C22.1315034,4.37756498 22.0578289,4.46511628 22.0578289,4.64419848 C21.8334568,5.98532521 21.7564336,6.69767442 21.7564336,6.78920532 C21.6057359,7.95124984 21.4550382,8.75512996 21.4550382,8.93023256 C21.0799685,5.98532521 21.1569917,3.75276707 21.5320615,2.41164034 L21.5320615,2.41164034 Z M45.6853534,33.3499535 L45.7674419,33.4236279 C45.5995336,33.5006512 45.3495368,33.5006512 44.9316318,33.5006512 C43.4241886,33.5006512 41.4988404,33.1255814 39.0697674,32.372093 C42.7525555,32.372093 44.9316318,32.6734884 45.6853534,33.3499535 L45.6853534,33.3499535 Z" id="Fill-225" sketch:type="MSShapeGroup"></path>
        </g>
    </g>
</svg>